@startuml
'https://plantuml.com/class-diagram

package viewModels <<Rectangle>>{

    class AddressesVM{
    }
    class ConsultationsVM{
    }
    class DoctorsVM{
    }
    class EmContactsVM{
    }
    class PatientsVM{
    }
    class VMFactory{
    }
}

class MainView{
    #vmfactory: VMFactory
    #vfactoryType: Class
    #font: Object[2]

    #configureStyles() : void
    +createView() : void
    #createLoginView() : void
    #addFrames() : void
    +destroyView() : void
    +loadCommand() : void
    +saveCommand() : void
    +loginCommand() : void
    #activeFrameChangeEventHandler(*args: list) : void
    #addFrameSelection() : void
    #addSaveLoadButtons() : void
    #createLoginView() : void
    #hideMainFrm() : void
    #showMainFrm() : void
}

class Table{
    +{static} width: int = 1000 - 60
    +{static} height: int = 200

    +root: Frame
    +data: Var[][]
    +cellStyle: Object
    +font: Object[2]
    +widths: int[]
    +headers: str[]

    +{static} getCellStyle()

    #createTable() : void
    #createHeaders() : void
    #createCells() : void
    +deleteRowById(id: int) : void
    +addRow(rowData: str[]) : void
    +getRow(row: int) : str[]
    +rows(): int
    +getData(): Var[][]
    +clear() : void
    +setData(data: Var[][]) : void
}

class View{
    #vm: ViewModel
    #vmType: class
    #font: Object[2]

    +{static} addField(root: Frame, **kwars: dict) : Frame
    +{static} addSelectField(root: Frame, **kwars: dict) : Frame

    createView() : void
}

class TableView{
    #idUpdField: Frame
    #idField: Frame
    #deleteWidgetsSet: set
    #updateWidgetsSet: set
    #updateIdWidgetsSet: set
    #addWidgetsSet: set
    #typeOpVar: IntVar
    #addOpt: int = 0
    #updateOpt: int = 1
    #deleteOpt: int = 2
    #updateIdOpt: int = 3
    #subFrmRight: Frame
    #table: Table
    #subFrmLeft: Frame
    #fioFrm: Frame
    #headers: str[]
    #colWidths: int[]
    #hasDeleteBt: bool

    pack(*vars: list, **kwars: dict) : void
    createView() : void
    addDefaultWidgets() : void
    addWidget(widget, AUState: bool[2])) : void
    getWigetsFrame() : void
    getFioFrame() : void
    evalFunc() : void
    addButtons() : void
    #typeOpChangeEventHandler(*vars: list) : void
    addTypeOpt() : void
    #configureStyles() : void
    addIdFields() : void
}

class ViewFactory{
    {static} -mainView: MainView
    {static} +defaultFont: Object[2]

    {static} +getMainWindow(root, vmfactory: VMFactory) : MainView
    {static} +getAddressesView(root, vmfactory: VMFactory) : TableView
    {static} +getDoctorsView(root, vmfactory: VMFactory) : TableView
    {static} +getPatientsView(root, vmfactory: VMFactory) : TableView
    {static} +getEmergencyView(root, vmfactory: VMFactory) : TableView
    {static} +getConsultationsView(root, vmfactory: VMFactory) : TableView
}

VMFactory -[hidden] AddressesVM
AddressesVM -[hidden]- PatientsVM
PatientsVM -[hidden] EmContactsVM
EmContactsVM -[hidden]- ConsultationsVM
ConsultationsVM -[hidden] DoctorsVM

VMFactory -o MainView
MainView o- ViewFactory

View --|> TableView
Table -* TableView



ViewFactory o-- View
ViewFactory o-- TableView
ViewFactory - VMFactory
ViewFactory -- AddressesVM
ViewFactory -- PatientsVM
ViewFactory -- DoctorsVM
ViewFactory -- ConsultationsVM
ViewFactory -- EmContactsVM

@enduml